Tutorial - como gerar os gráficos boxplot no R
…
vls <- rasterToPoints(Prec_RS) %>% 
  as_tibble() %>% 
  gather(var, value, -x, -y) %>% 
  mutate(mes = parse_number(var)) %>% 
  inner_join(., lbl, by = 'mes') %>% 
  dplyr::select(x, y, month_abb, value) %>% 
  mutate(month_abb = factor(month_abb, levels = month.abb))

vls %>% 
  filter(month_abb == 'Jan')

## # A tibble: 217,860 x 4
##        x     y month_abb value
##    <dbl> <dbl> <fct>     <dbl>
##  1 -53.1 -27.1 Jan         165
##  2 -53.0 -27.1 Jan         165
##  3 -53.0 -27.1 Jan         165
##  4 -53.0 -27.1 Jan         166
##  5 -53.0 -27.1 Jan         166
##  6 -53.4 -27.1 Jan         161
##  7 -53.4 -27.1 Jan         161
##  8 -53.4 -27.1 Jan         161
##  9 -53.1 -27.1 Jan         165
## 10 -53.1 -27.1 Jan         165
## # ... with 217,850 more rows
## # i Use `print(n = ...)` to see more rows
…
